{
    "/js/app.js": "/js/app.js",
    "/js/manifest.js": "/js/manifest.js",
    "/css/app.css": "/css/app.css",
    "/js/vendor.js": "/js/vendor.js",
    "/sw.js": "/sw.js",
    "/webfonts/fa-brands-400.ttf": "/webfonts/fa-brands-400.ttf",
    "/webfonts/fa-brands-400.woff2": "/webfonts/fa-brands-400.woff2",
    "/webfonts/fa-regular-400.ttf": "/webfonts/fa-regular-400.ttf",
    "/webfonts/fa-regular-400.woff2": "/webfonts/fa-regular-400.woff2",
    "/webfonts/fa-solid-900.ttf": "/webfonts/fa-solid-900.ttf",
    "/webfonts/fa-solid-900.woff2": "/webfonts/fa-solid-900.woff2",
    "/webfonts/fa-v4compatibility.ttf": "/webfonts/fa-v4compatibility.ttf",
    "/webfonts/fa-v4compatibility.woff2": "/webfonts/fa-v4compatibility.woff2"
}
